…
## Commandes essentielles

- `group_by()` : factorisation (`split`)
- `summarise()` : aggrégation (`aggregate`)
- `mutate()` : opération interne au data frame (`transform`)
- `filter()` : sélection de lignes (`subset`)
- `select()` : sélection de colonnes (projection) (`subset`)
- `arrange()` : tri d'un data frame selon des variables (`order`)

## "Tibbles"

    > tbl_df(dt)
    # A tibble: 1,586,614 x 13
       brewery_id            brewery_name review_time 
            <int>                   <chr>       <int> 
     1      10325         Vecchio Birraio  1234817823 
     2      10325         Vecchio Birraio  1235915097 
     3      10325         Vecchio Birraio  1235916604 
     4      10325         Vecchio Birraio  1234725145 
     5       1075 Caldera Brewing Company  1293735206 
     6       1075 Caldera Brewing Company  1325524659 
     7       1075 Caldera Brewing Company  1318991115 
     8       1075 Caldera Brewing Company  1306276018 
     9       1075 Caldera Brewing Company  1290454503 
    10       1075 Caldera Brewing Company  1285632924 
    # ... with 1,586,604 more rows, and 8 more variables:
…
